﻿{
    "_id": "580dfe09bed332198ffc4739",
    "index": 6, main
    "guid": "444f1650-a995-44b9-bd36-0b754a29c590",
    "isActive": true,
    "balance": "$2,370.56",
    "picture": "http://placehold.it/32x32",
    "age": 26,
    "eyeColor": "green",
    "name": "Solomon Mccray", ПРИВЕТ
    "gender": "male",
    "company": "EARTHPURE",  exit
    "email": "solomonmccray@earthpure.com", LOL
    "phone": "+1 (995) 588-3295",  Udacha
    "address": "154 Lorraine Street, Bethpage, Iowa, 3052",
    "about": "Duis amet ea occaecat velit. Labore commodo officia eiusmod cillum proident fugiat sit labore labore. Sunt in laboris est non. Voluptate Lorem incididunt ad ut non. Et qui labore occaecat fugiat pariatur ea do ad aliquip laborum non eiusmod deserunt adipisicing.\r\n",
    "registered": "2015-09-11T02:01:01 -03:00",
    "latitude": 63.319805,
    "longitude": 93.197514, huvew
    "tags": [  gud
      "dolore",
      "aliqua", alredi
      "velit",
      "consectetur",
      "id",   mastre
      "cillum",
      "dolore"
    ],
    "friends": [ monolog
      {
        "id": 0,
        "name": "Dollie Booker"
      },
      {
        "id": 1,
        "name": "Day Walters"
      },
      {
        "id": 2,
        "name": "Hatfield Mcpherson"
      }
    ],
    "greeting": "Hello, Solomon Mccray! You have 1 unread messages.",
    "favoriteFruit": "banana"
  }